{
  "version": "2.0",
  "licenses": [
    {
      "id": "MIT",
      "name": "MIT License",
      "url": "https://opensource.org/licenses/MIT",
      "count": 3
    },
    {
      "id": "BSD-3-Clause",
      "name": "BSD 3-Clause \"New\" or \"Revised\" License",
      "url": "https://opensource.org/licenses/BSD-3-Clause",
      "count": 1
    },
    {
      "id": "ISC",
      "name": "ISC License",
      "url": "https://opensource.org/licenses/ISC",
      "count": 1
    },
    {
      "id": "unknown",
      "name": "unknown",
      "url": "",
      "count": 1
    }
  ],
  "dependencies": [
    {
      "name": "github.com/davecgh/go-spew",
      "url": "",
      "description": "",
      "paths": [
        "."
      ],
      "licenses": [
        "ISC"
      ]
    },
    {
      "name": "github.com/konsorten/go-windows-terminal-sequences",
      "url": "",
      "description": "",
      "paths": [
        "."
      ],
      "licenses": [
        "MIT"
      ]
    },
    {
      "name": "github.com/pmezard/go-difflib",
      "url": "",
      "description": "",
      "paths": [
        "."
      ],
      "licenses": [
        "unknown"
      ]
    },
    {
      "name": "github.com/sirupsen/logrus",
      "url": "",
      "description": "",
      "paths": [
        "."
      ],
      "licenses": [
        "MIT"
      ]
    },
    {
      "name": "github.com/stretchr/testify",
      "url": "",
      "description": "",
      "paths": [
        "."
      ],
      "licenses": [
        "MIT"
      ]
    },
    {
      "name": "golang.org/x/sys",
      "url": "",
      "description": "",
      "paths": [
        "."
      ],
      "licenses": [
        "BSD-3-Clause"
      ]
    }
  ]
}