{
  "version": "2.1",
  "licenses": [
    {
      "id": "BSD-2-Clause",
      "name": "BSD 2-Clause \"Simplified\" License",
      "url": "https://opensource.org/licenses/BSD-2-Clause"
    },
    {
      "id": "BSD-3-Clause",
      "name": "BSD 3-Clause \"New\" or \"Revised\" License",
      "url": "https://opensource.org/licenses/BSD-3-Clause"
    },
    {
      "id": "BSD-3-Clause-Attribution",
      "name": "BSD with attribution",
      "url": "https://fedoraproject.org/wiki/Licensing/BSD_with_Attribution"
    },
    {
      "id": "MIT",
      "name": "MIT License",
      "url": "https://opensource.org/licenses/MIT"
    }
  ],
  "dependencies": [
    {
      "name": "classpreloader/classpreloader",
      "version": "3.2.0",
      "package_manager": "composer",
      "path": ".",
      "licenses": [
        "MIT"
      ]
    },
    {
      "name": "dnoegel/php-xdg-base-dir",
      "version": "0.1",
      "package_manager": "composer",
      "path": ".",
      "licenses": [
        "MIT"
      ]
    },
    {
      "name": "doctrine/inflector",
      "version": "v1.1.0",
      "package_manager": "composer",
      "path": ".",
      "licenses": [
        "MIT"
      ]
    },
    {
      "name": "doctrine/instantiator",
      "version": "1.0.5",
      "package_manager": "composer",
      "path": ".",
      "licenses": [
        "MIT"
      ]
    },
    {
      "name": "jakub-onderka/php-console-color",
      "version": "0.1",
      "package_manager": "composer",
      "path": ".",
      "licenses": [
        "BSD-2-Clause"
      ]
    },
    {
      "name": "jakub-onderka/php-console-highlighter",
      "version": "v0.3.2",
      "package_manager": "composer",
      "path": ".",
      "licenses": [
        "MIT"
      ]
    },
    {
      "name": "jeremeamia/SuperClosure",
      "version": "2.3.0",
      "package_manager": "composer",
      "path": ".",
      "licenses": [
        "MIT"
      ]
    },
    {
      "name": "laravel/framework",
      "version": "v5.3.31",
      "package_manager": "composer",
      "path": ".",
      "licenses": [
        "MIT"
      ]
    },
    {
      "name": "league/flysystem",
      "version": "1.0.42",
      "package_manager": "composer",
      "path": ".",
      "licenses": [
        "MIT"
      ]
    },
    {
      "name": "monolog/monolog",
      "version": "1.23.0",
      "package_manager": "composer",
      "path": ".",
      "licenses": [
        "MIT"
      ]
    },
    {
      "name": "mtdowling/cron-expression",
      "version": "v1.2.1",
      "package_manager": "composer",
      "path": ".",
      "licenses": [
        "MIT"
      ]
    },
    {
      "name": "myclabs/deep-copy",
      "version": "1.7.0",
      "package_manager": "composer",
      "path": ".",
      "licenses": [
        "MIT"
      ]
    },
    {
      "name": "nesbot/carbon",
      "version": "1.22.1",
      "package_manager": "composer",
      "path": ".",
      "licenses": [
        "MIT"
      ]
    },
    {
      "name": "nikic/php-parser",
      "version": "v3.1.4",
      "package_manager": "composer",
      "path": ".",
      "licenses": [
        "BSD-3-Clause"
      ]
    },
    {
      "name": "paragonie/random_compat",
      "version": "v2.0.11",
      "package_manager": "composer",
      "path": ".",
      "licenses": [
        "MIT"
      ]
    },
    {
      "name": "phpdocumentor/reflection-common",
      "version": "1.0.1",
      "package_manager": "composer",
      "path": ".",
      "licenses": [
        "MIT"
      ]
    },
    {
      "name": "phpdocumentor/reflection-docblock",
      "version": "3.3.2",
      "package_manager": "composer",
      "path": ".",
      "licenses": [
        "MIT"
      ]
    },
    {
      "name": "phpdocumentor/type-resolver",
      "version": "0.4.0",
      "package_manager": "composer",
      "path": ".",
      "licenses": [
        "MIT"
      ]
    },
    {
      "name": "phpspec/prophecy",
      "version": "1.7.4",
      "package_manager": "composer",
      "path": ".",
      "licenses": [
        "MIT"
      ]
    },
    {
      "name": "phpunit/php-code-coverage",
      "version": "4.0.8",
      "package_manager": "composer",
      "path": ".",
      "licenses": [
        "BSD-3-Clause"
      ]
    },
    {
      "name": "phpunit/php-file-iterator",
      "version": "1.4.5",
      "package_manager": "composer",
      "path": ".",
      "licenses": [
        "BSD-3-Clause"
      ]
    },
    {
      "name": "phpunit/php-text-template",
      "version": "1.2.1",
      "package_manager": "composer",
      "path": ".",
      "licenses": [
        "BSD-3-Clause"
      ]
    },
    {
      "name": "phpunit/php-timer",
      "version": "1.0.9",
      "package_manager": "composer",
      "path": ".",
      "licenses": [
        "BSD-3-Clause"
      ]
    },
    {
      "name": "phpunit/php-token-stream",
      "version": "1.4.12",
      "package_manager": "composer",
      "path": ".",
      "licenses": [
        "BSD-3-Clause"
      ]
    },
    {
      "name": "phpunit/phpunit",
      "version": "5.7.27",
      "package_manager": "composer",
      "path": ".",
      "licenses": [
        "BSD-3-Clause"
      ]
    },
    {
      "name": "phpunit/phpunit-mock-objects",
      "version": "3.4.4",
      "package_manager": "composer",
      "path": ".",
      "licenses": [
        "BSD-3-Clause"
      ]
    },
    {
      "name": "psr/log",
      "version": "1.0.2",
      "package_manager": "composer",
      "path": ".",
      "licenses": [
        "MIT"
      ]
    },
    {
      "name": "psy/psysh",
      "version": "v0.8.17",
      "package_manager": "composer",
      "path": ".",
      "licenses": [
        "MIT"
      ]
    },
    {
      "name": "ramsey/uuid",
      "version": "3.7.3",
      "package_manager": "composer",
      "path": ".",
      "licenses": [
        "MIT"
      ]
    },
    {
      "name": "sebastian/code-unit-reverse-lookup",
      "version": "1.0.1",
      "package_manager": "composer",
      "path": ".",
      "licenses": [
        "BSD-3-Clause"
      ]
    },
    {
      "name": "sebastian/comparator",
      "version": "1.2.4",
      "package_manager": "composer",
      "path": ".",
      "licenses": [
        "BSD-3-Clause"
      ]
    },
    {
      "name": "sebastian/diff",
      "version": "1.4.3",
      "package_manager": "composer",
      "path": ".",
      "licenses": [
        "BSD-3-Clause"
      ]
    },
    {
      "name": "sebastian/environment",
      "version": "2.0.0",
      "package_manager": "composer",
      "path": ".",
      "licenses": [
        "BSD-3-Clause"
      ]
    },
    {
      "name": "sebastian/exporter",
      "version": "2.0.0",
      "package_manager": "composer",
      "path": ".",
      "licenses": [
        "BSD-3-Clause"
      ]
    },
    {
      "name": "sebastian/global-state",
      "version": "1.1.1",
      "package_manager": "composer",
      "path": ".",
      "licenses": [
        "BSD-3-Clause"
      ]
    },
    {
      "name": "sebastian/object-enumerator",
      "version": "2.0.1",
      "package_manager": "composer",
      "path": ".",
      "licenses": [
        "BSD-3-Clause"
      ]
    },
    {
      "name": "sebastian/recursion-context",
      "version": "2.0.0",
      "package_manager": "composer",
      "path": ".",
      "licenses": [
        "BSD-3-Clause"
      ]
    },
    {
      "name": "sebastian/resource-operations",
      "version": "1.0.0",
      "package_manager": "composer",
      "path": ".",
      "licenses": [
        "BSD-3-Clause"
      ]
    },
    {
      "name": "sebastian/version",
      "version": "2.0.1",
      "package_manager": "composer",
      "path": ".",
      "licenses": [
        "BSD-3-Clause"
      ]
    },
    {
      "name": "swiftmailer/swiftmailer",
      "version": "v5.4.9",
      "package_manager": "composer",
      "path": ".",
      "licenses": [
        "MIT"
      ]
    },
    {
      "name": "symfony/console",
      "version": "v3.1.10",
      "package_manager": "composer",
      "path": ".",
      "licenses": [
        "MIT"
      ]
    },
    {
      "name": "symfony/debug",
      "version": "v3.1.10",
      "package_manager": "composer",
      "path": ".",
      "licenses": [
        "MIT"
      ]
    },
    {
      "name": "symfony/event-dispatcher",
      "version": "v3.4.4",
      "package_manager": "composer",
      "path": ".",
      "licenses": [
        "MIT"
      ]
    },
    {
      "name": "symfony/finder",
      "version": "v3.1.10",
      "package_manager": "composer",
      "path": ".",
      "licenses": [
        "MIT"
      ]
    },
    {
      "name": "symfony/http-foundation",
      "version": "v3.1.10",
      "package_manager": "composer",
      "path": ".",
      "licenses": [
        "MIT"
      ]
    },
    {
      "name": "symfony/http-kernel",
      "version": "v3.1.10",
      "package_manager": "composer",
      "path": ".",
      "licenses": [
        "MIT"
      ]
    },
    {
      "name": "symfony/polyfill-mbstring",
      "version": "v1.7.0",
      "package_manager": "composer",
      "path": ".",
      "licenses": [
        "MIT"
      ]
    },
    {
      "name": "symfony/polyfill-php56",
      "version": "v1.7.0",
      "package_manager": "composer",
      "path": ".",
      "licenses": [
        "MIT"
      ]
    },
    {
      "name": "symfony/polyfill-util",
      "version": "v1.7.0",
      "package_manager": "composer",
      "path": ".",
      "licenses": [
        "MIT"
      ]
    },
    {
      "name": "symfony/process",
      "version": "v3.1.10",
      "package_manager": "composer",
      "path": ".",
      "licenses": [
        "MIT"
      ]
    },
    {
      "name": "symfony/routing",
      "version": "v3.1.10",
      "package_manager": "composer",
      "path": ".",
      "licenses": [
        "MIT"
      ]
    },
    {
      "name": "symfony/translation",
      "version": "v3.1.10",
      "package_manager": "composer",
      "path": ".",
      "licenses": [
        "MIT"
      ]
    },
    {
      "name": "symfony/var-dumper",
      "version": "v3.1.10",
      "package_manager": "composer",
      "path": ".",
      "licenses": [
        "MIT"
      ]
    },
    {
      "name": "symfony/yaml",
      "version": "v3.3.16",
      "package_manager": "composer",
      "path": ".",
      "licenses": [
        "MIT"
      ]
    },
    {
      "name": "vlucas/phpdotenv",
      "version": "v2.4.0",
      "package_manager": "composer",
      "path": ".",
      "licenses": [
        "BSD-3-Clause-Attribution"
      ]
    },
    {
      "name": "webmozart/assert",
      "version": "1.3.0",
      "package_manager": "composer",
      "path": ".",
      "licenses": [
        "MIT"
      ]
    }
  ]
}
